{
  "posts": [
    {
      "id": 1,
      "title": "Blog post #1",
      "author": "Juan Perez",
      "publish_date": "2016-02-23",
      "slug": "blog-post-1",
      "description": "This is an interesting discussion.",
      "content": "<p>Here we talk about very interesting things.</p>"
    },
    {
      "id": 2,
      "title": "Blog post #2",
      "author": "Pedro Perez",
      "publish_date": "2016-03-16",
      "slug": "blog-post-2",
      "description": "You should come and have a read.",
      "content": "<p>This is another interesting topic. Come and have your say.</p>"
    },
    {
      "id": 3,
      "title": "Blog post #3",
      "author": "Carlos Soto",
      "publish_date": "2016-03-28",
      "slug": "blog-post-3",
      "description": "This is another interesting discussion.",
      "content": "<p>Interesting discussion.</p>"
    },
    {
      "id": 4,
      "title": "Blog post #4",
      "author": "Paula Campos",
      "publish_date": "2016-06-03",
      "slug": "blog-post-4",
      "description": "Here people are discussing some serious things",
      "content": "<p>Come and give your opinion.</p>"
    },
    {
      "id": 5,
      "title": "Blog post #5",
      "author": "Alejandro Moreno",
      "publish_date": "2016-08-09",
      "slug": "blog-post-5",
      "description": "Bla",
      "content": "<p>Yada yada yada.</p>"
    },
    {
      "id": 6,
      "title": "Blog post #6",
      "author": "Peter Jackson",
      "publish_date": "2016-09-16",
      "slug": "blog-post-6",
      "description": "Hola.",
      "content": "<p>Interesante tópico.</p>"
    },
    {
      "id": 7,
      "title": "Blog post #7",
      "author": "Perico Los Palotes",
      "publish_date": "2016-09-29",
      "slug": "blog-post-7",
      "description": "Te tere te tere te te",
      "content": "<p>Te tere te tere te te.</p>"
    },
    {
      "id": 8,
      "title": "Blog post #8",
      "author": "Fulanito de Tal",
      "publish_date": "2016-09-30",
      "slug": "blog-post-8",
      "description": "Big.",
      "content": "<p>Bang.</p>"
    },
    {
      "id": 9,
      "title": "Blog post #9",
      "author": "Jhon Doe",
      "publish_date": "2016-10-11",
      "slug": "blog-post-9",
      "description": "A B C D.",
      "content": "<p>1 2 3.</p>"
    },
    {
      "id": 10,
      "title": "Blog post #10",
      "author": "Don Francisco",
      "publish_date": "2016-11-29",
      "slug": "blog-post-10",
      "description": "Que venga la modelo.",
      "content": "<p>Se lo ganó! se lo ganó!.</p>"
    }
  ],
  "comments": [
    {
      "id": 1,
      "postId": 1,
      "parent_id": null,
      "user": "Condorito",
      "date": "2016-02-23",
      "content": "Hello hello."
    },
    {
      "id": 2,
      "postId": 1,
      "parent_id": 1,
      "user": "Jake",
      "date": "2016-02-23",
      "content": "Fiu."
    },
    {
      "id": 3,
      "postId": 1,
      "parent_id": 2,
      "user": "Miclo",
      "date": "2016-02-24",
      "content": "...."
    },
    {
      "id": 4,
      "postId": 1,
      "parent_id": 1,
      "user": "Natalia",
      "date": "2016-02-23",
      "content": "Bim."
    },
    {
      "id": 5,
      "postId": 1,
      "parent_id": null,
      "user": "Sheila",
      "date": "2016-02-24",
      "content": "Bam."
    },
    {
      "id": 6,
      "postId": 2,
      "parent_id": null,
      "user": "Hernan",
      "date": "2016-03-16",
      "content": "Bum."
    },
    {
      "id": 7,
      "postId": 2,
      "parent_id": null,
      "user": "Juan Perez",
      "date": "2016-03-17",
      "content": "Cueck."
    },
    {
      "postId": "10",
      "user": "El chacal",
      "content": "Está contento",
      "parent_id": null,
      "date": "2018-03-23",
      "fullDate": "2018-03-23T18:38:00.226Z",
      "id": 8
    },
    {
      "postId": "10",
      "user": "El chacal",
      "content": "porque acaba de ganar",
      "parent_id": 8,
      "date": "2018-03-23",
      "fullDate": "2018-03-23T18:38:13.322Z",
      "id": 9
    },
    {
      "postId": "10",
      "user": "Don Francisco",
      "content": "Ganó!",
      "parent_id": 9,
      "date": "2018-03-23",
      "fullDate": "2018-03-23T18:38:30.362Z",
      "id": 10
    }
  ]
}